[2020-09-03T12:41:44.056064+00:00] wcrypto.INFO: This is a log info [] []
[2020-09-03T12:41:44.058276+00:00] wcrypto.WARNING: This is a log warning [] []
[2020-09-03T12:41:44.058352+00:00] wcrypto.ERROR: This is a log error [] []
[2020-09-03T12:42:31.076988+00:00] wcrypto.INFO: This is a log info [] []
[2020-09-03T12:42:31.078063+00:00] wcrypto.WARNING: This is a log warning [] []
[2020-09-03T12:42:31.078109+00:00] wcrypto.ERROR: This is a log error [] []
[2020-09-03T12:42:31.078145+00:00] wcrypto.ALERT: This is a log alert [] []
[2020-09-03T12:54:05.828388+00:00] wcrypto.INFO: This is a log info [] []
[2020-09-03T12:54:05.829710+00:00] wcrypto.WARNING: This is a log warning [] []
[2020-09-03T12:54:05.829769+00:00] wcrypto.ERROR: This is a log error [] []
[2020-09-03T12:54:05.830206+00:00] wcrypto.ALERT: This is a log alert [] []
[2020-09-03T12:54:05.830253+00:00] transaction.INFO: Transaction 01 [] []
[2020-09-03T12:54:05.830418+00:00] transaction.INFO: Transaction 02 [] []
[2020-09-03T16:02:15.153006+00:00] wcrypto.INFO: This is a log info [] []
[2020-09-03T16:02:15.166544+00:00] wcrypto.WARNING: This is a log warning [] []
[2020-09-03T16:02:15.166584+00:00] wcrypto.ERROR: This is a log error [] []
[2020-09-03T16:02:15.166609+00:00] wcrypto.ALERT: This is a log alert [] []
[2020-09-03T16:02:15.166647+00:00] transaction.INFO: Transaction 01 [] []
[2020-09-03T16:02:15.166803+00:00] transaction.INFO: Transaction 02 [] []
[2020-09-03T17:55:19.396243+00:00] mylog.INFO: teste [] []
[2020-09-03T18:00:08.338172+00:00] mylog.INFO: teste [] []
[2020-09-03T18:00:24.078201+00:00] mylog.INFO: teste [] []
[2020-09-03T18:00:26.503524+00:00] mylog.INFO: teste [] []
[2020-09-03T18:00:31.993813+00:00] mylog.INFO: teste [] []
[2020-09-03T18:00:45.070115+00:00] mylog.INFO: teste [] []
[2020-09-03T18:00:47.011573+00:00] mylog.INFO: teste [] []
[2020-09-03T18:00:53.152718+00:00] mylog.INFO: teste [] []
[2020-09-03T18:00:54.062049+00:00] mylog.INFO: teste [] []
[2020-09-03T18:00:54.480353+00:00] mylog.INFO: teste [] []
[2020-09-03T18:00:54.675651+00:00] mylog.INFO: teste [] []
[2020-09-03T18:00:54.897090+00:00] mylog.INFO: teste [] []
[2020-09-03T18:00:55.101552+00:00] mylog.INFO: teste [] []
[2020-09-04T21:52:10.161757+00:00] mylog.INFO: User created [{"DanielAnjos\\WCrypto\\Http\\Entities\\User":{"id":"21","name":"Yt7sxsEj9Tg/rAeXJpOGYQ==","cpf_cnpj":"B8PF0MchE5pSW/SMTR0bgnf8Ey+OPCuJowtAwsdsGxU=","rg_ie":"SC9CaXmey8/Bk6+LOi5wCg==","birth_date":"1997-04-28","phone":"LtFO3zPBZw7Yh1nVwbWCKQ==","password":"x8PBVtxHYBd7zpsfGVw/hw==","address":"wiqA4wpTn+oPUgZmyhUSyA==","address_number":"O/v55bqlIXpjgdcqiAcuUQ==","city":"+9hQh/x9HdUBGGhRxF0iRFOZYbJr++xniQAyiAdjPTg=","country":"M75mPLA+5o6mGPeEUauqxg=="}}] []
[2020-09-04T21:53:28.875107+00:00] mylog.INFO: User created {"user_id":"22","account_id":"22"} []
[2020-09-04T22:27:48.558230+00:00] mylog.INFO: User created {"user_id":"23"} []
[2020-09-04T22:27:48.617978+00:00] mylog.INFO: Account created {"account_id":"23"} []
[2020-09-04T22:28:14.771691+00:00] wcrypto.INFO: User created {"user_id":"24"} []
[2020-09-04T22:28:14.846343+00:00] wcrypto.INFO: Account created {"account_id":"24"} []
[2020-09-08T12:54:33.891653+00:00] wcrypto.INFO: User created {"user_id":"25"} []
[2020-09-08T12:54:34.116063+00:00] wcrypto.INFO: Account created {"account_id":"25"} []
[2020-09-08T12:56:06.428702+00:00] wcrypto.INFO: User created {"user_id":"26"} []
[2020-09-08T12:56:06.520024+00:00] wcrypto.INFO: Account created {"account_id":"26"} []
[2020-09-08T12:56:20.641742+00:00] wcrypto.INFO: User created {"user_id":"27"} []
[2020-09-08T12:56:20.699253+00:00] wcrypto.INFO: Account created {"account_id":"27"} []
[2020-09-08T15:41:07.569491+00:00] wcrypto.INFO: User created {"user_id":"28"} []
[2020-09-08T15:41:07.708854+00:00] wcrypto.INFO: Account created {"account_id":"28"} []
[2020-09-08T15:45:26.617304+00:00] wcrypto.INFO: Deposit {"source_account":123,"value":30} []
[2020-09-08T15:45:47.104360+00:00] wcrypto.INFO: Deposit {"source_account":123,"value":30} []
[2020-09-08T15:46:44.610918+00:00] wcrypto.INFO: Deposit {"source_account":123,"value":30} []
[2020-09-08T15:46:50.401563+00:00] wcrypto.INFO: Deposit {"source_account":123,"value":30} []
[2020-09-08T16:11:31.676739+00:00] wcrypto.INFO: Deposit {"source_account":"123","value":30.0} []
[2020-09-08T16:11:35.490998+00:00] wcrypto.INFO: Deposit {"source_account":"123","value":30.0} []
[2020-09-08T16:21:23.995115+00:00] wcrypto.INFO: Deposit {"source_account":"123","value":30.0} []
[2020-09-08T16:31:30.147413+00:00] wcrypto.INFO: Deposit {"source_account":null,"value":null} []
[2020-09-08T16:32:23.842570+00:00] wcrypto.INFO: Deposit {"source_account":"123","value":30.0} []
[2020-09-08T16:35:04.770157+00:00] wcrypto.INFO: Deposit {"source_account":null,"value":null} []
[2020-09-08T16:35:13.447743+00:00] wcrypto.INFO: Deposit {"source_account":null,"value":null} []
[2020-09-08T16:35:34.362352+00:00] wcrypto.INFO: Deposit {"source_account":null,"value":null} []
[2020-09-08T16:35:57.045811+00:00] wcrypto.INFO: Deposit {"source_account":"123","value":30.0} []
[2020-09-08T16:36:07.284611+00:00] wcrypto.INFO: Deposit {"source_account":"123","value":30.0} []
[2020-09-08T16:36:22.432893+00:00] wcrypto.INFO: Deposit {"source_account":"123","value":30.0} []
[2020-09-08T16:36:27.036933+00:00] wcrypto.INFO: Deposit {"source_account":"123","value":30.0} []
[2020-09-08T16:36:42.716938+00:00] wcrypto.INFO: Deposit {"source_account":null,"value":null} []
[2020-09-08T16:44:26.305655+00:00] wcrypto.INFO: Deposit {"source_account":"123","value":30.0} []
[2020-09-08T16:49:43.634487+00:00] wcrypto.INFO: Deposit {"source_account":"123","value":30.0} []
[2020-09-08T16:49:49.549737+00:00] wcrypto.INFO: Deposit {"source_account":"123","value":30.0} []
[2020-09-08T16:49:53.727478+00:00] wcrypto.INFO: Deposit {"source_account":"123","value":30.0} []
[2020-09-08T16:49:59.407018+00:00] wcrypto.INFO: Deposit {"source_account":"123","value":30.0} []
[2020-09-08T16:50:06.505378+00:00] wcrypto.INFO: Deposit {"source_account":"123","value":30.0} []
[2020-09-08T16:50:10.967497+00:00] wcrypto.INFO: Deposit {"source_account":"123","value":30.0} []
[2020-09-08T16:50:28.269011+00:00] wcrypto.INFO: Deposit {"source_account":"123","value":30.0} []
[2020-09-08T16:50:56.427137+00:00] wcrypto.INFO: Deposit {"source_account":"123","value":30.0} []
[2020-09-08T16:51:00.037562+00:00] wcrypto.INFO: Deposit {"source_account":"123","value":30.0} []
[2020-09-08T16:51:19.202848+00:00] wcrypto.INFO: Deposit {"source_account":"123","value":30.0} []
[2020-09-08T17:52:26.370105+00:00] wcrypto.INFO: Deposit {"source_account":{"DanielAnjos\\WCrypto\\Http\\Entities\\Account":{"id":null,"account_number":"aXd4p4+gzS73EJ3mNasJUw==","balance":null,"user":{"id":null,"name":null,"cpf_cnpj":null,"rg_ie":null,"birth_date":null,"phone":null,"password":null,"address":null,"address_number":null,"city":null,"country":null}}},"value":30.0} []
[2020-09-08T17:52:53.933840+00:00] wcrypto.INFO: Deposit {"source_account":{"DanielAnjos\\WCrypto\\Http\\Entities\\Account":{"id":null,"account_number":"aXd4p4+gzS73EJ3mNasJUw==","balance":null,"user":{"id":null,"name":null,"cpf_cnpj":null,"rg_ie":null,"birth_date":null,"phone":null,"password":null,"address":null,"address_number":null,"city":null,"country":null}}},"value":30.0} []
[2020-09-08T18:05:18.938160+00:00] wcrypto.INFO: Deposit {"source_account":{"DanielAnjos\\WCrypto\\Http\\Entities\\Account":{"id":"6","account_number":"aXd4p4+gzS73EJ3mNasJUw==","balance":"1000","user":{"id":null,"name":null,"cpf_cnpj":null,"rg_ie":null,"birth_date":null,"phone":null,"password":null,"address":null,"address_number":null,"city":null,"country":null}}},"value":30.0} []
[2020-09-08T18:09:12.190188+00:00] wcrypto.INFO: Deposit {"source_account":{"DanielAnjos\\WCrypto\\Http\\Entities\\Account":{"id":"6","account_number":"aXd4p4+gzS73EJ3mNasJUw==","balance":"1000","user":{"id":"6","name":"Yt7sxsEj9Tg/rAeXJpOGYQ==","cpf_cnpj":"B8PF0MchE5pSW/SMTR0bgnf8Ey+OPCuJowtAwsdsGxU=","rg_ie":"SC9CaXmey8/Bk6+LOi5wCg==","birth_date":"1997-04-28","phone":"LtFO3zPBZw7Yh1nVwbWCKQ==","password":null,"address":"wiqA4wpTn+oPUgZmyhUSyA==","address_number":"O/v55bqlIXpjgdcqiAcuUQ==","city":"+9hQh/x9HdUBGGhRxF0iRFOZYbJr++xniQAyiAdjPTg=","country":"M75mPLA+5o6mGPeEUauqxg=="}}},"value":30.0} []
[2020-09-08T18:09:31.071015+00:00] wcrypto.INFO: Deposit {"source_account":{"DanielAnjos\\WCrypto\\Http\\Entities\\Account":{"id":"6","account_number":"aXd4p4+gzS73EJ3mNasJUw==","balance":"1000","user":{"id":"6","name":"Yt7sxsEj9Tg/rAeXJpOGYQ==","cpf_cnpj":"B8PF0MchE5pSW/SMTR0bgnf8Ey+OPCuJowtAwsdsGxU=","rg_ie":"SC9CaXmey8/Bk6+LOi5wCg==","birth_date":"1997-04-28","phone":"LtFO3zPBZw7Yh1nVwbWCKQ==","password":null,"address":"wiqA4wpTn+oPUgZmyhUSyA==","address_number":"O/v55bqlIXpjgdcqiAcuUQ==","city":"+9hQh/x9HdUBGGhRxF0iRFOZYbJr++xniQAyiAdjPTg=","country":"M75mPLA+5o6mGPeEUauqxg=="}}},"value":30.0} []
[2020-09-08T18:10:12.133019+00:00] wcrypto.INFO: Deposit {"source_account":{"DanielAnjos\\WCrypto\\Http\\Entities\\Account":{"id":"6","account_number":"aXd4p4+gzS73EJ3mNasJUw==","balance":"1000","user":{"id":"6","name":"Yt7sxsEj9Tg/rAeXJpOGYQ==","cpf_cnpj":"B8PF0MchE5pSW/SMTR0bgnf8Ey+OPCuJowtAwsdsGxU=","rg_ie":"SC9CaXmey8/Bk6+LOi5wCg==","birth_date":"1997-04-28","phone":"LtFO3zPBZw7Yh1nVwbWCKQ==","password":null,"address":"wiqA4wpTn+oPUgZmyhUSyA==","address_number":"O/v55bqlIXpjgdcqiAcuUQ==","city":"+9hQh/x9HdUBGGhRxF0iRFOZYbJr++xniQAyiAdjPTg=","country":"M75mPLA+5o6mGPeEUauqxg=="}}},"value":30.0} []
[2020-09-08T18:10:34.929890+00:00] wcrypto.INFO: Deposit {"source_account":{"DanielAnjos\\WCrypto\\Http\\Entities\\Account":{"id":"6","account_number":"aXd4p4+gzS73EJ3mNasJUw==","balance":"1000","user":{"id":"6","name":"Yt7sxsEj9Tg/rAeXJpOGYQ==","cpf_cnpj":"B8PF0MchE5pSW/SMTR0bgnf8Ey+OPCuJowtAwsdsGxU=","rg_ie":"SC9CaXmey8/Bk6+LOi5wCg==","birth_date":"1997-04-28","phone":"LtFO3zPBZw7Yh1nVwbWCKQ==","password":null,"address":"wiqA4wpTn+oPUgZmyhUSyA==","address_number":"O/v55bqlIXpjgdcqiAcuUQ==","city":"+9hQh/x9HdUBGGhRxF0iRFOZYbJr++xniQAyiAdjPTg=","country":"M75mPLA+5o6mGPeEUauqxg=="}}},"value":30.0} []
[2020-09-08T18:11:23.876989+00:00] wcrypto.INFO: Deposit {"source_account":{"DanielAnjos\\WCrypto\\Http\\Entities\\Account":{"id":"6","account_number":"aXd4p4+gzS73EJ3mNasJUw==","balance":"1000","user":{"id":"6","name":"Yt7sxsEj9Tg/rAeXJpOGYQ==","cpf_cnpj":"B8PF0MchE5pSW/SMTR0bgnf8Ey+OPCuJowtAwsdsGxU=","rg_ie":"SC9CaXmey8/Bk6+LOi5wCg==","birth_date":"1997-04-28","phone":"LtFO3zPBZw7Yh1nVwbWCKQ==","password":null,"address":"wiqA4wpTn+oPUgZmyhUSyA==","address_number":"O/v55bqlIXpjgdcqiAcuUQ==","city":"+9hQh/x9HdUBGGhRxF0iRFOZYbJr++xniQAyiAdjPTg=","country":"M75mPLA+5o6mGPeEUauqxg=="}}},"value":30.0} []
[2020-09-08T18:12:35.810002+00:00] wcrypto.INFO: Deposit {"source_account":{"DanielAnjos\\WCrypto\\Http\\Entities\\Account":{"id":"6","account_number":"aXd4p4+gzS73EJ3mNasJUw==","balance":"1000","user":{"id":"6","name":"Yt7sxsEj9Tg/rAeXJpOGYQ==","cpf_cnpj":"B8PF0MchE5pSW/SMTR0bgnf8Ey+OPCuJowtAwsdsGxU=","rg_ie":"SC9CaXmey8/Bk6+LOi5wCg==","birth_date":"1997-04-28","phone":"LtFO3zPBZw7Yh1nVwbWCKQ==","password":null,"address":"wiqA4wpTn+oPUgZmyhUSyA==","address_number":"O/v55bqlIXpjgdcqiAcuUQ==","city":"+9hQh/x9HdUBGGhRxF0iRFOZYbJr++xniQAyiAdjPTg=","country":"M75mPLA+5o6mGPeEUauqxg=="}}},"value":30.0} []
[2020-09-08T18:12:53.012807+00:00] wcrypto.INFO: Deposit {"source_account":{"DanielAnjos\\WCrypto\\Http\\Entities\\Account":{"id":"6","account_number":"aXd4p4+gzS73EJ3mNasJUw==","balance":"1000","user":{"id":"6","name":"Yt7sxsEj9Tg/rAeXJpOGYQ==","cpf_cnpj":"B8PF0MchE5pSW/SMTR0bgnf8Ey+OPCuJowtAwsdsGxU=","rg_ie":"SC9CaXmey8/Bk6+LOi5wCg==","birth_date":"1997-04-28","phone":"LtFO3zPBZw7Yh1nVwbWCKQ==","password":null,"address":"wiqA4wpTn+oPUgZmyhUSyA==","address_number":"O/v55bqlIXpjgdcqiAcuUQ==","city":"+9hQh/x9HdUBGGhRxF0iRFOZYbJr++xniQAyiAdjPTg=","country":"M75mPLA+5o6mGPeEUauqxg=="}}},"value":30.0} []
[2020-09-08T18:13:05.743191+00:00] wcrypto.INFO: Deposit {"source_account":{"DanielAnjos\\WCrypto\\Http\\Entities\\Account":{"id":"6","account_number":"aXd4p4+gzS73EJ3mNasJUw==","balance":"1000","user":{"id":"6","name":"Yt7sxsEj9Tg/rAeXJpOGYQ==","cpf_cnpj":"B8PF0MchE5pSW/SMTR0bgnf8Ey+OPCuJowtAwsdsGxU=","rg_ie":"SC9CaXmey8/Bk6+LOi5wCg==","birth_date":"1997-04-28","phone":"LtFO3zPBZw7Yh1nVwbWCKQ==","password":null,"address":"wiqA4wpTn+oPUgZmyhUSyA==","address_number":"O/v55bqlIXpjgdcqiAcuUQ==","city":"+9hQh/x9HdUBGGhRxF0iRFOZYbJr++xniQAyiAdjPTg=","country":"M75mPLA+5o6mGPeEUauqxg=="}}},"value":30.0} []
[2020-09-08T18:13:16.946482+00:00] wcrypto.INFO: Deposit {"source_account":{"DanielAnjos\\WCrypto\\Http\\Entities\\Account":{"id":"6","account_number":"aXd4p4+gzS73EJ3mNasJUw==","balance":"1000","user":{"id":"6","name":"Yt7sxsEj9Tg/rAeXJpOGYQ==","cpf_cnpj":"B8PF0MchE5pSW/SMTR0bgnf8Ey+OPCuJowtAwsdsGxU=","rg_ie":"SC9CaXmey8/Bk6+LOi5wCg==","birth_date":"1997-04-28","phone":"LtFO3zPBZw7Yh1nVwbWCKQ==","password":null,"address":"wiqA4wpTn+oPUgZmyhUSyA==","address_number":"O/v55bqlIXpjgdcqiAcuUQ==","city":"+9hQh/x9HdUBGGhRxF0iRFOZYbJr++xniQAyiAdjPTg=","country":"M75mPLA+5o6mGPeEUauqxg=="}}},"value":30.0} []
[2020-09-08T18:13:36.720112+00:00] wcrypto.INFO: Deposit {"source_account":{"DanielAnjos\\WCrypto\\Http\\Entities\\Account":{"id":"6","account_number":"aXd4p4+gzS73EJ3mNasJUw==","balance":"1000","user":{"id":"6","name":"Yt7sxsEj9Tg/rAeXJpOGYQ==","cpf_cnpj":"B8PF0MchE5pSW/SMTR0bgnf8Ey+OPCuJowtAwsdsGxU=","rg_ie":"SC9CaXmey8/Bk6+LOi5wCg==","birth_date":"1997-04-28","phone":"LtFO3zPBZw7Yh1nVwbWCKQ==","password":null,"address":"wiqA4wpTn+oPUgZmyhUSyA==","address_number":"O/v55bqlIXpjgdcqiAcuUQ==","city":"+9hQh/x9HdUBGGhRxF0iRFOZYbJr++xniQAyiAdjPTg=","country":"M75mPLA+5o6mGPeEUauqxg=="}}},"value":3000.0} []
[2020-09-08T18:14:15.546366+00:00] wcrypto.INFO: Deposit {"source_account":{"DanielAnjos\\WCrypto\\Http\\Entities\\Account":{"id":"6","account_number":"aXd4p4+gzS73EJ3mNasJUw==","balance":"1000","user":{"id":"6","name":"Yt7sxsEj9Tg/rAeXJpOGYQ==","cpf_cnpj":"B8PF0MchE5pSW/SMTR0bgnf8Ey+OPCuJowtAwsdsGxU=","rg_ie":"SC9CaXmey8/Bk6+LOi5wCg==","birth_date":"1997-04-28","phone":"LtFO3zPBZw7Yh1nVwbWCKQ==","password":null,"address":"wiqA4wpTn+oPUgZmyhUSyA==","address_number":"O/v55bqlIXpjgdcqiAcuUQ==","city":"+9hQh/x9HdUBGGhRxF0iRFOZYbJr++xniQAyiAdjPTg=","country":"M75mPLA+5o6mGPeEUauqxg=="}}},"value":3000.0} []
[2020-09-08T18:14:31.311408+00:00] wcrypto.INFO: Deposit {"source_account":{"DanielAnjos\\WCrypto\\Http\\Entities\\Account":{"id":"6","account_number":"aXd4p4+gzS73EJ3mNasJUw==","balance":"4000","user":{"id":"6","name":"Yt7sxsEj9Tg/rAeXJpOGYQ==","cpf_cnpj":"B8PF0MchE5pSW/SMTR0bgnf8Ey+OPCuJowtAwsdsGxU=","rg_ie":"SC9CaXmey8/Bk6+LOi5wCg==","birth_date":"1997-04-28","phone":"LtFO3zPBZw7Yh1nVwbWCKQ==","password":null,"address":"wiqA4wpTn+oPUgZmyhUSyA==","address_number":"O/v55bqlIXpjgdcqiAcuUQ==","city":"+9hQh/x9HdUBGGhRxF0iRFOZYbJr++xniQAyiAdjPTg=","country":"M75mPLA+5o6mGPeEUauqxg=="}}},"value":30.0} []
[2020-09-08T18:14:39.405276+00:00] wcrypto.INFO: Deposit {"source_account":{"DanielAnjos\\WCrypto\\Http\\Entities\\Account":{"id":"6","account_number":"aXd4p4+gzS73EJ3mNasJUw==","balance":"3970","user":{"id":"6","name":"Yt7sxsEj9Tg/rAeXJpOGYQ==","cpf_cnpj":"B8PF0MchE5pSW/SMTR0bgnf8Ey+OPCuJowtAwsdsGxU=","rg_ie":"SC9CaXmey8/Bk6+LOi5wCg==","birth_date":"1997-04-28","phone":"LtFO3zPBZw7Yh1nVwbWCKQ==","password":null,"address":"wiqA4wpTn+oPUgZmyhUSyA==","address_number":"O/v55bqlIXpjgdcqiAcuUQ==","city":"+9hQh/x9HdUBGGhRxF0iRFOZYbJr++xniQAyiAdjPTg=","country":"M75mPLA+5o6mGPeEUauqxg=="}}},"value":300.0} []
[2020-09-08T18:14:49.183393+00:00] wcrypto.INFO: Deposit {"source_account":{"DanielAnjos\\WCrypto\\Http\\Entities\\Account":{"id":"6","account_number":"aXd4p4+gzS73EJ3mNasJUw==","balance":"3670","user":{"id":"6","name":"Yt7sxsEj9Tg/rAeXJpOGYQ==","cpf_cnpj":"B8PF0MchE5pSW/SMTR0bgnf8Ey+OPCuJowtAwsdsGxU=","rg_ie":"SC9CaXmey8/Bk6+LOi5wCg==","birth_date":"1997-04-28","phone":"LtFO3zPBZw7Yh1nVwbWCKQ==","password":null,"address":"wiqA4wpTn+oPUgZmyhUSyA==","address_number":"O/v55bqlIXpjgdcqiAcuUQ==","city":"+9hQh/x9HdUBGGhRxF0iRFOZYbJr++xniQAyiAdjPTg=","country":"M75mPLA+5o6mGPeEUauqxg=="}}},"value":670.0} []
[2020-09-08T18:15:01.978713+00:00] wcrypto.INFO: Deposit {"source_account":{"DanielAnjos\\WCrypto\\Http\\Entities\\Account":{"id":"6","account_number":"aXd4p4+gzS73EJ3mNasJUw==","balance":"3000","user":{"id":"6","name":"Yt7sxsEj9Tg/rAeXJpOGYQ==","cpf_cnpj":"B8PF0MchE5pSW/SMTR0bgnf8Ey+OPCuJowtAwsdsGxU=","rg_ie":"SC9CaXmey8/Bk6+LOi5wCg==","birth_date":"1997-04-28","phone":"LtFO3zPBZw7Yh1nVwbWCKQ==","password":null,"address":"wiqA4wpTn+oPUgZmyhUSyA==","address_number":"O/v55bqlIXpjgdcqiAcuUQ==","city":"+9hQh/x9HdUBGGhRxF0iRFOZYbJr++xniQAyiAdjPTg=","country":"M75mPLA+5o6mGPeEUauqxg=="}}},"value":500.53} []
[2020-09-08T18:17:04.119051+00:00] wcrypto.INFO: Deposit {"source_account":{"DanielAnjos\\WCrypto\\Http\\Entities\\Account":{"id":"6","account_number":"aXd4p4+gzS73EJ3mNasJUw==","balance":"2499.47","user":{"id":"6","name":"Yt7sxsEj9Tg/rAeXJpOGYQ==","cpf_cnpj":"B8PF0MchE5pSW/SMTR0bgnf8Ey+OPCuJowtAwsdsGxU=","rg_ie":"SC9CaXmey8/Bk6+LOi5wCg==","birth_date":"1997-04-28","phone":"LtFO3zPBZw7Yh1nVwbWCKQ==","password":null,"address":"wiqA4wpTn+oPUgZmyhUSyA==","address_number":"O/v55bqlIXpjgdcqiAcuUQ==","city":"+9hQh/x9HdUBGGhRxF0iRFOZYbJr++xniQAyiAdjPTg=","country":"M75mPLA+5o6mGPeEUauqxg=="}}},"value":500.47} []
[2020-09-08T18:17:17.661930+00:00] wcrypto.INFO: Deposit {"source_account":{"DanielAnjos\\WCrypto\\Http\\Entities\\Account":{"id":"6","account_number":"aXd4p4+gzS73EJ3mNasJUw==","balance":"1999.00","user":{"id":"6","name":"Yt7sxsEj9Tg/rAeXJpOGYQ==","cpf_cnpj":"B8PF0MchE5pSW/SMTR0bgnf8Ey+OPCuJowtAwsdsGxU=","rg_ie":"SC9CaXmey8/Bk6+LOi5wCg==","birth_date":"1997-04-28","phone":"LtFO3zPBZw7Yh1nVwbWCKQ==","password":null,"address":"wiqA4wpTn+oPUgZmyhUSyA==","address_number":"O/v55bqlIXpjgdcqiAcuUQ==","city":"+9hQh/x9HdUBGGhRxF0iRFOZYbJr++xniQAyiAdjPTg=","country":"M75mPLA+5o6mGPeEUauqxg=="}}},"value":1999.0} []
[2020-09-08T18:22:15.645216+00:00] wcrypto.INFO: Deposit {"source_account":{"DanielAnjos\\WCrypto\\Http\\Entities\\Account":{"id":"6","account_number":"aXd4p4+gzS73EJ3mNasJUw==","balance":"0.00","user":{"id":"6","name":"Yt7sxsEj9Tg/rAeXJpOGYQ==","cpf_cnpj":"B8PF0MchE5pSW/SMTR0bgnf8Ey+OPCuJowtAwsdsGxU=","rg_ie":"SC9CaXmey8/Bk6+LOi5wCg==","birth_date":"1997-04-28","phone":"LtFO3zPBZw7Yh1nVwbWCKQ==","password":null,"address":"wiqA4wpTn+oPUgZmyhUSyA==","address_number":"O/v55bqlIXpjgdcqiAcuUQ==","city":"+9hQh/x9HdUBGGhRxF0iRFOZYbJr++xniQAyiAdjPTg=","country":"M75mPLA+5o6mGPeEUauqxg=="}}},"value":30.0} []
[2020-09-08T18:22:26.703324+00:00] wcrypto.INFO: Deposit {"source_account":{"DanielAnjos\\WCrypto\\Http\\Entities\\Account":{"id":"6","account_number":"aXd4p4+gzS73EJ3mNasJUw==","balance":"0.00","user":{"id":"6","name":"Yt7sxsEj9Tg/rAeXJpOGYQ==","cpf_cnpj":"B8PF0MchE5pSW/SMTR0bgnf8Ey+OPCuJowtAwsdsGxU=","rg_ie":"SC9CaXmey8/Bk6+LOi5wCg==","birth_date":"1997-04-28","phone":"LtFO3zPBZw7Yh1nVwbWCKQ==","password":null,"address":"wiqA4wpTn+oPUgZmyhUSyA==","address_number":"O/v55bqlIXpjgdcqiAcuUQ==","city":"+9hQh/x9HdUBGGhRxF0iRFOZYbJr++xniQAyiAdjPTg=","country":"M75mPLA+5o6mGPeEUauqxg=="}}},"value":30.0} []
[2020-09-08T18:26:46.785010+00:00] wcrypto.INFO: Deposit {"source_account":{"DanielAnjos\\WCrypto\\Http\\Entities\\Account":{"id":"6","account_number":"aXd4p4+gzS73EJ3mNasJUw==","balance":"0.00","user":{"id":"6","name":"Yt7sxsEj9Tg/rAeXJpOGYQ==","cpf_cnpj":"B8PF0MchE5pSW/SMTR0bgnf8Ey+OPCuJowtAwsdsGxU=","rg_ie":"SC9CaXmey8/Bk6+LOi5wCg==","birth_date":"1997-04-28","phone":"LtFO3zPBZw7Yh1nVwbWCKQ==","password":null,"address":"wiqA4wpTn+oPUgZmyhUSyA==","address_number":"O/v55bqlIXpjgdcqiAcuUQ==","city":"+9hQh/x9HdUBGGhRxF0iRFOZYbJr++xniQAyiAdjPTg=","country":"M75mPLA+5o6mGPeEUauqxg=="}}},"value":3000.0} []
[2020-09-08T18:27:08.416269+00:00] wcrypto.INFO: Deposit {"source_account":{"DanielAnjos\\WCrypto\\Http\\Entities\\Account":{"id":"6","account_number":"aXd4p4+gzS73EJ3mNasJUw==","balance":"0.00","user":{"id":"6","name":"Yt7sxsEj9Tg/rAeXJpOGYQ==","cpf_cnpj":"B8PF0MchE5pSW/SMTR0bgnf8Ey+OPCuJowtAwsdsGxU=","rg_ie":"SC9CaXmey8/Bk6+LOi5wCg==","birth_date":"1997-04-28","phone":"LtFO3zPBZw7Yh1nVwbWCKQ==","password":null,"address":"wiqA4wpTn+oPUgZmyhUSyA==","address_number":"O/v55bqlIXpjgdcqiAcuUQ==","city":"+9hQh/x9HdUBGGhRxF0iRFOZYbJr++xniQAyiAdjPTg=","country":"M75mPLA+5o6mGPeEUauqxg=="}}},"value":3000.0} []
[2020-09-08T18:27:12.317619+00:00] wcrypto.INFO: Deposit {"source_account":{"DanielAnjos\\WCrypto\\Http\\Entities\\Account":{"id":"6","account_number":"aXd4p4+gzS73EJ3mNasJUw==","balance":"3000.00","user":{"id":"6","name":"Yt7sxsEj9Tg/rAeXJpOGYQ==","cpf_cnpj":"B8PF0MchE5pSW/SMTR0bgnf8Ey+OPCuJowtAwsdsGxU=","rg_ie":"SC9CaXmey8/Bk6+LOi5wCg==","birth_date":"1997-04-28","phone":"LtFO3zPBZw7Yh1nVwbWCKQ==","password":null,"address":"wiqA4wpTn+oPUgZmyhUSyA==","address_number":"O/v55bqlIXpjgdcqiAcuUQ==","city":"+9hQh/x9HdUBGGhRxF0iRFOZYbJr++xniQAyiAdjPTg=","country":"M75mPLA+5o6mGPeEUauqxg=="}}},"value":30.0} []
[2020-09-08T18:29:34.104225+00:00] wcrypto.INFO: Withdrawal {"source_account":{"DanielAnjos\\WCrypto\\Http\\Entities\\Account":{"id":"6","account_number":"aXd4p4+gzS73EJ3mNasJUw==","balance":"2970.00","user":{"id":"6","name":"Yt7sxsEj9Tg/rAeXJpOGYQ==","cpf_cnpj":"B8PF0MchE5pSW/SMTR0bgnf8Ey+OPCuJowtAwsdsGxU=","rg_ie":"SC9CaXmey8/Bk6+LOi5wCg==","birth_date":"1997-04-28","phone":"LtFO3zPBZw7Yh1nVwbWCKQ==","password":null,"address":"wiqA4wpTn+oPUgZmyhUSyA==","address_number":"O/v55bqlIXpjgdcqiAcuUQ==","city":"+9hQh/x9HdUBGGhRxF0iRFOZYbJr++xniQAyiAdjPTg=","country":"M75mPLA+5o6mGPeEUauqxg=="}}},"value":30.0} []
[2020-09-08T18:30:40.632502+00:00] wcrypto.INFO: Withdrawal {"source_account":{"DanielAnjos\\WCrypto\\Http\\Entities\\Account":{"id":"6","account_number":"aXd4p4+gzS73EJ3mNasJUw==","balance":"2940.00","user":{"id":"6","name":"Yt7sxsEj9Tg/rAeXJpOGYQ==","cpf_cnpj":"B8PF0MchE5pSW/SMTR0bgnf8Ey+OPCuJowtAwsdsGxU=","rg_ie":"SC9CaXmey8/Bk6+LOi5wCg==","birth_date":"1997-04-28","phone":"LtFO3zPBZw7Yh1nVwbWCKQ==","password":null,"address":"wiqA4wpTn+oPUgZmyhUSyA==","address_number":"O/v55bqlIXpjgdcqiAcuUQ==","city":"+9hQh/x9HdUBGGhRxF0iRFOZYbJr++xniQAyiAdjPTg=","country":"M75mPLA+5o6mGPeEUauqxg=="}}},"value":30.0} []
[2020-09-08T18:57:40.310012+00:00] wcrypto.INFO: User created {"user_id":"1"} []
[2020-09-08T18:57:40.410090+00:00] wcrypto.INFO: Account created {"account_id":"1"} []
[2020-09-08T19:52:48.110514+00:00] wcrypto.INFO: User created {"user_id":"2"} []
[2020-09-08T19:52:48.226771+00:00] wcrypto.INFO: Account created {"account_id":"2"} []
[2020-09-08T19:53:17.127427+00:00] wcrypto.INFO: User created {"user_id":"3"} []
[2020-09-08T19:53:17.243952+00:00] wcrypto.INFO: Account created {"account_id":"3"} []
[2020-09-08T19:53:37.180185+00:00] wcrypto.INFO: User created {"user_id":"4"} []
[2020-09-08T19:53:37.296660+00:00] wcrypto.INFO: Account created {"account_id":"4"} []
[2020-09-08T19:53:40.492748+00:00] wcrypto.INFO: User created {"user_id":"5"} []
[2020-09-08T19:53:40.550637+00:00] wcrypto.INFO: Account created {"account_id":"5"} []
[2020-09-08T19:53:55.621990+00:00] wcrypto.INFO: User created {"user_id":"6"} []
[2020-09-08T19:53:55.721941+00:00] wcrypto.INFO: Account created {"account_id":"6"} []
[2020-09-08T19:56:09.094861+00:00] wcrypto.INFO: User created {"user_id":"7"} []
[2020-09-08T19:56:09.191593+00:00] wcrypto.INFO: Account created {"account_id":"7"} []
[2020-09-08T19:56:18.372679+00:00] wcrypto.INFO: User created {"user_id":"8"} []
[2020-09-08T19:56:18.488821+00:00] wcrypto.INFO: Account created {"account_id":"8"} []
[2020-09-08T19:56:20.431634+00:00] wcrypto.INFO: User created {"user_id":"9"} []
[2020-09-08T19:56:20.544534+00:00] wcrypto.INFO: Account created {"account_id":"9"} []
[2020-09-08T19:56:21.781934+00:00] wcrypto.INFO: User created {"user_id":"10"} []
[2020-09-08T19:56:21.856688+00:00] wcrypto.INFO: Account created {"account_id":"10"} []
[2020-09-08T19:57:22.154803+00:00] wcrypto.INFO: User created {"user_id":"11"} []
[2020-09-08T19:57:22.232866+00:00] wcrypto.INFO: Account created {"account_id":"11"} []
[2020-09-08T19:57:24.016861+00:00] wcrypto.INFO: User created {"user_id":"12"} []
[2020-09-08T19:57:24.080315+00:00] wcrypto.INFO: Account created {"account_id":"12"} []
[2020-09-08T19:57:25.025985+00:00] wcrypto.INFO: User created {"user_id":"13"} []
[2020-09-08T19:57:25.083899+00:00] wcrypto.INFO: Account created {"account_id":"13"} []
[2020-09-08T19:57:25.992889+00:00] wcrypto.INFO: User created {"user_id":"14"} []
[2020-09-08T19:57:26.050904+00:00] wcrypto.INFO: Account created {"account_id":"14"} []
[2020-09-08T19:57:26.934829+00:00] wcrypto.INFO: User created {"user_id":"15"} []
[2020-09-08T19:57:27.034451+00:00] wcrypto.INFO: Account created {"account_id":"15"} []
[2020-09-08T19:57:50.400061+00:00] wcrypto.INFO: User created {"user_id":"1"} []
[2020-09-08T19:57:50.533262+00:00] wcrypto.INFO: Account created {"account_id":"1"} []
[2020-09-08T20:14:12.773956+00:00] wcrypto.INFO: User created {"user_id":"1"} []
[2020-09-08T20:14:12.831884+00:00] wcrypto.INFO: Account created {"account_id":"1"} []
[2020-09-08T20:16:22.609638+00:00] wcrypto.INFO: User created {"user_id":"3"} []
[2020-09-08T20:35:10.817712+00:00] wcrypto.INFO: Deposit {"source_account":{"DanielAnjos\\WCrypto\\Http\\Entities\\Account":{"id":"1","account_number":"N/66SANWF/979cSngp98yA==","balance":"1000.00","user":{"id":"1","name":"Yt7sxsEj9Tg/rAeXJpOGYQ==","cpf_cnpj":"B8PF0MchE5pSW/SMTR0bgnf8Ey+OPCuJowtAwsdsGxU=","rg_ie":"SC9CaXmey8/Bk6+LOi5wCg==","birth_date":"1997-04-28","phone":"LtFO3zPBZw7Yh1nVwbWCKQ==","password":null,"address":"wiqA4wpTn+oPUgZmyhUSyA==","address_number":"O/v55bqlIXpjgdcqiAcuUQ==","city":"+9hQh/x9HdUBGGhRxF0iRFOZYbJr++xniQAyiAdjPTg=","country":"M75mPLA+5o6mGPeEUauqxg=="}}},"value":3000.0} []
[2020-09-08T20:56:37.232547+00:00] wcrypto.INFO: Deposit {"source_account":{"DanielAnjos\\WCrypto\\Http\\Entities\\Account":{"id":"1","account_number":"N/66SANWF/979cSngp98yA==","balance":"4000.00","user":{"id":"1","name":"Yt7sxsEj9Tg/rAeXJpOGYQ==","cpf_cnpj":"B8PF0MchE5pSW/SMTR0bgnf8Ey+OPCuJowtAwsdsGxU=","rg_ie":"SC9CaXmey8/Bk6+LOi5wCg==","birth_date":"1997-04-28","phone":"LtFO3zPBZw7Yh1nVwbWCKQ==","password":null,"address":"wiqA4wpTn+oPUgZmyhUSyA==","address_number":"O/v55bqlIXpjgdcqiAcuUQ==","city":"+9hQh/x9HdUBGGhRxF0iRFOZYbJr++xniQAyiAdjPTg=","country":"M75mPLA+5o6mGPeEUauqxg=="}}},"value":3000.0} []
[2020-09-08T20:56:50.617986+00:00] wcrypto.INFO: Deposit {"source_account":{"DanielAnjos\\WCrypto\\Http\\Entities\\Account":{"id":"1","account_number":"N/66SANWF/979cSngp98yA==","balance":"7000.00","user":{"id":"1","name":"Yt7sxsEj9Tg/rAeXJpOGYQ==","cpf_cnpj":"B8PF0MchE5pSW/SMTR0bgnf8Ey+OPCuJowtAwsdsGxU=","rg_ie":"SC9CaXmey8/Bk6+LOi5wCg==","birth_date":"1997-04-28","phone":"LtFO3zPBZw7Yh1nVwbWCKQ==","password":null,"address":"wiqA4wpTn+oPUgZmyhUSyA==","address_number":"O/v55bqlIXpjgdcqiAcuUQ==","city":"+9hQh/x9HdUBGGhRxF0iRFOZYbJr++xniQAyiAdjPTg=","country":"M75mPLA+5o6mGPeEUauqxg=="}}},"value":3000.0} []
[2020-09-08T20:57:10.922768+00:00] wcrypto.INFO: Withdrawal {"source_account":{"DanielAnjos\\WCrypto\\Http\\Entities\\Account":{"id":"1","account_number":"N/66SANWF/979cSngp98yA==","balance":"10000.00","user":{"id":"1","name":"Yt7sxsEj9Tg/rAeXJpOGYQ==","cpf_cnpj":"B8PF0MchE5pSW/SMTR0bgnf8Ey+OPCuJowtAwsdsGxU=","rg_ie":"SC9CaXmey8/Bk6+LOi5wCg==","birth_date":"1997-04-28","phone":"LtFO3zPBZw7Yh1nVwbWCKQ==","password":null,"address":"wiqA4wpTn+oPUgZmyhUSyA==","address_number":"O/v55bqlIXpjgdcqiAcuUQ==","city":"+9hQh/x9HdUBGGhRxF0iRFOZYbJr++xniQAyiAdjPTg=","country":"M75mPLA+5o6mGPeEUauqxg=="}}},"value":1000.0} []
[2020-09-08T20:59:56.229411+00:00] wcrypto.INFO: Withdrawal {"source_account":{"DanielAnjos\\WCrypto\\Http\\Entities\\Account":{"id":"1","account_number":"N/66SANWF/979cSngp98yA==","balance":"9000.00","user":{"id":"1","name":"Yt7sxsEj9Tg/rAeXJpOGYQ==","cpf_cnpj":"B8PF0MchE5pSW/SMTR0bgnf8Ey+OPCuJowtAwsdsGxU=","rg_ie":"SC9CaXmey8/Bk6+LOi5wCg==","birth_date":"1997-04-28","phone":"LtFO3zPBZw7Yh1nVwbWCKQ==","password":null,"address":"wiqA4wpTn+oPUgZmyhUSyA==","address_number":"O/v55bqlIXpjgdcqiAcuUQ==","city":"+9hQh/x9HdUBGGhRxF0iRFOZYbJr++xniQAyiAdjPTg=","country":"M75mPLA+5o6mGPeEUauqxg=="}}},"value":1000.0} []
[2020-09-08T21:00:01.406024+00:00] wcrypto.INFO: Withdrawal {"source_account":{"DanielAnjos\\WCrypto\\Http\\Entities\\Account":{"id":"1","account_number":"N/66SANWF/979cSngp98yA==","balance":"8000.00","user":{"id":"1","name":"Yt7sxsEj9Tg/rAeXJpOGYQ==","cpf_cnpj":"B8PF0MchE5pSW/SMTR0bgnf8Ey+OPCuJowtAwsdsGxU=","rg_ie":"SC9CaXmey8/Bk6+LOi5wCg==","birth_date":"1997-04-28","phone":"LtFO3zPBZw7Yh1nVwbWCKQ==","password":null,"address":"wiqA4wpTn+oPUgZmyhUSyA==","address_number":"O/v55bqlIXpjgdcqiAcuUQ==","city":"+9hQh/x9HdUBGGhRxF0iRFOZYbJr++xniQAyiAdjPTg=","country":"M75mPLA+5o6mGPeEUauqxg=="}}},"value":1000.0} []
[2020-09-08T21:00:39.117926+00:00] wcrypto.INFO: Withdrawal {"source_account":{"DanielAnjos\\WCrypto\\Http\\Entities\\Account":{"id":"1","account_number":"N/66SANWF/979cSngp98yA==","balance":6000.0,"user":{"id":"1","name":"Yt7sxsEj9Tg/rAeXJpOGYQ==","cpf_cnpj":"B8PF0MchE5pSW/SMTR0bgnf8Ey+OPCuJowtAwsdsGxU=","rg_ie":"SC9CaXmey8/Bk6+LOi5wCg==","birth_date":"1997-04-28","phone":"LtFO3zPBZw7Yh1nVwbWCKQ==","password":null,"address":"wiqA4wpTn+oPUgZmyhUSyA==","address_number":"O/v55bqlIXpjgdcqiAcuUQ==","city":"+9hQh/x9HdUBGGhRxF0iRFOZYbJr++xniQAyiAdjPTg=","country":"M75mPLA+5o6mGPeEUauqxg=="}}},"value":1000.0} []
[2020-09-08T21:00:42.563856+00:00] wcrypto.INFO: Withdrawal {"source_account":{"DanielAnjos\\WCrypto\\Http\\Entities\\Account":{"id":"1","account_number":"N/66SANWF/979cSngp98yA==","balance":5000.0,"user":{"id":"1","name":"Yt7sxsEj9Tg/rAeXJpOGYQ==","cpf_cnpj":"B8PF0MchE5pSW/SMTR0bgnf8Ey+OPCuJowtAwsdsGxU=","rg_ie":"SC9CaXmey8/Bk6+LOi5wCg==","birth_date":"1997-04-28","phone":"LtFO3zPBZw7Yh1nVwbWCKQ==","password":null,"address":"wiqA4wpTn+oPUgZmyhUSyA==","address_number":"O/v55bqlIXpjgdcqiAcuUQ==","city":"+9hQh/x9HdUBGGhRxF0iRFOZYbJr++xniQAyiAdjPTg=","country":"M75mPLA+5o6mGPeEUauqxg=="}}},"value":1000.0} []
[2020-09-08T21:00:44.964461+00:00] wcrypto.INFO: Withdrawal {"source_account":{"DanielAnjos\\WCrypto\\Http\\Entities\\Account":{"id":"1","account_number":"N/66SANWF/979cSngp98yA==","balance":4000.0,"user":{"id":"1","name":"Yt7sxsEj9Tg/rAeXJpOGYQ==","cpf_cnpj":"B8PF0MchE5pSW/SMTR0bgnf8Ey+OPCuJowtAwsdsGxU=","rg_ie":"SC9CaXmey8/Bk6+LOi5wCg==","birth_date":"1997-04-28","phone":"LtFO3zPBZw7Yh1nVwbWCKQ==","password":null,"address":"wiqA4wpTn+oPUgZmyhUSyA==","address_number":"O/v55bqlIXpjgdcqiAcuUQ==","city":"+9hQh/x9HdUBGGhRxF0iRFOZYbJr++xniQAyiAdjPTg=","country":"M75mPLA+5o6mGPeEUauqxg=="}}},"value":1000.0} []
[2020-09-08T21:00:53.608422+00:00] wcrypto.INFO: Deposit {"source_account":{"DanielAnjos\\WCrypto\\Http\\Entities\\Account":{"id":"1","account_number":"N/66SANWF/979cSngp98yA==","balance":7000.0,"user":{"id":"1","name":"Yt7sxsEj9Tg/rAeXJpOGYQ==","cpf_cnpj":"B8PF0MchE5pSW/SMTR0bgnf8Ey+OPCuJowtAwsdsGxU=","rg_ie":"SC9CaXmey8/Bk6+LOi5wCg==","birth_date":"1997-04-28","phone":"LtFO3zPBZw7Yh1nVwbWCKQ==","password":null,"address":"wiqA4wpTn+oPUgZmyhUSyA==","address_number":"O/v55bqlIXpjgdcqiAcuUQ==","city":"+9hQh/x9HdUBGGhRxF0iRFOZYbJr++xniQAyiAdjPTg=","country":"M75mPLA+5o6mGPeEUauqxg=="}}},"value":3000.0} []
[2020-09-09T22:56:50.788396+00:00] wcrypto.INFO: Deposit {"source_account":{"DanielAnjos\\WCrypto\\Http\\Entities\\Account":{"id":"1","account_number":"N/66SANWF/979cSngp98yA==","balance":10000.0,"user":{"id":"1","name":"Yt7sxsEj9Tg/rAeXJpOGYQ==","cpf_cnpj":"B8PF0MchE5pSW/SMTR0bgnf8Ey+OPCuJowtAwsdsGxU=","rg_ie":"SC9CaXmey8/Bk6+LOi5wCg==","birth_date":"1997-04-28","phone":"LtFO3zPBZw7Yh1nVwbWCKQ==","password":null,"address":"wiqA4wpTn+oPUgZmyhUSyA==","address_number":"O/v55bqlIXpjgdcqiAcuUQ==","city":"+9hQh/x9HdUBGGhRxF0iRFOZYbJr++xniQAyiAdjPTg=","country":"M75mPLA+5o6mGPeEUauqxg=="}}},"value":3000} []
[2020-09-09T22:58:33.682436+00:00] wcrypto.INFO: Deposit {"source_account":{"DanielAnjos\\WCrypto\\Http\\Entities\\Account":{"id":"1","account_number":"N/66SANWF/979cSngp98yA==","balance":13000.0,"user":{"id":"1","name":"Yt7sxsEj9Tg/rAeXJpOGYQ==","cpf_cnpj":"B8PF0MchE5pSW/SMTR0bgnf8Ey+OPCuJowtAwsdsGxU=","rg_ie":"SC9CaXmey8/Bk6+LOi5wCg==","birth_date":"1997-04-28","phone":"LtFO3zPBZw7Yh1nVwbWCKQ==","password":null,"address":"wiqA4wpTn+oPUgZmyhUSyA==","address_number":"O/v55bqlIXpjgdcqiAcuUQ==","city":"+9hQh/x9HdUBGGhRxF0iRFOZYbJr++xniQAyiAdjPTg=","country":"M75mPLA+5o6mGPeEUauqxg=="}}},"value":3000} []
[2020-09-09T23:01:23.682987+00:00] wcrypto.INFO: User created {"user_id":"25"} []
[2020-09-09T23:01:23.930723+00:00] wcrypto.INFO: Account created {"account_id":"3"} []
[2020-09-09T23:02:38.213251+00:00] wcrypto.INFO: Transfer {"source_account":{"DanielAnjos\\WCrypto\\Http\\Entities\\Account":{"id":"1","account_number":"N/66SANWF/979cSngp98yA==","balance":11001.0,"user":{"id":"1","name":"Yt7sxsEj9Tg/rAeXJpOGYQ==","cpf_cnpj":"B8PF0MchE5pSW/SMTR0bgnf8Ey+OPCuJowtAwsdsGxU=","rg_ie":"SC9CaXmey8/Bk6+LOi5wCg==","birth_date":"1997-04-28","phone":"LtFO3zPBZw7Yh1nVwbWCKQ==","password":null,"address":"wiqA4wpTn+oPUgZmyhUSyA==","address_number":"O/v55bqlIXpjgdcqiAcuUQ==","city":"+9hQh/x9HdUBGGhRxF0iRFOZYbJr++xniQAyiAdjPTg=","country":"M75mPLA+5o6mGPeEUauqxg=="}}},"value":1999} []
[2020-09-10T01:24:21.919202+00:00] wcrypto.INFO: User created {"user_id":"26"} []
[2020-09-10T01:24:54.380431+00:00] wcrypto.INFO: User created {"user_id":"27"} []
[2020-09-10T01:26:40.518358+00:00] wcrypto.INFO: User created {"user_id":"28"} []
[2020-09-10T01:29:25.143720+00:00] wcrypto.INFO: User created {"user_id":"29"} []
[2020-09-10T01:29:34.734435+00:00] wcrypto.INFO: User created {"user_id":"30"} []
[2020-09-10T01:30:19.918227+00:00] wcrypto.INFO: User created {"user_id":"31"} []
[2020-09-10T01:31:19.994277+00:00] wcrypto.INFO: User created {"user_id":"32"} []
[2020-09-10T01:35:16.797654+00:00] wcrypto.INFO: User created {"user_id":"1"} []
[2020-09-10T01:35:16.847242+00:00] wcrypto.INFO: Account created {"account_id":"1"} []
[2020-09-10T01:35:42.899730+00:00] wcrypto.INFO: User created {"user_id":"2"} []
[2020-09-10T01:38:27.158193+00:00] wcrypto.INFO: User created {"user_id":"1"} []
[2020-09-10T01:38:27.236639+00:00] wcrypto.INFO: Account created {"account_id":"1"} []
[2020-09-10T01:38:31.709365+00:00] wcrypto.INFO: User created {"user_id":"2"} []
[2020-09-10T01:38:31.839942+00:00] wcrypto.INFO: Account created {"account_id":"2"} []
[2020-09-10T01:38:35.841465+00:00] wcrypto.INFO: User created {"user_id":"3"} []
[2020-09-10T01:38:35.935520+00:00] wcrypto.INFO: Account created {"account_id":"3"} []
[2020-09-10T01:38:57.767395+00:00] wcrypto.INFO: User created {"user_id":"4"} []
[2020-09-10T01:39:05.519486+00:00] wcrypto.INFO: User created {"user_id":"5"} []
[2020-09-10T01:39:09.159608+00:00] wcrypto.INFO: User created {"user_id":"6"} []
[2020-09-10T01:41:14.747241+00:00] wcrypto.INFO: User created {"user_id":"1"} []
[2020-09-10T01:41:14.856203+00:00] wcrypto.INFO: Account created {"account_id":"1"} []
[2020-09-10T01:41:21.601350+00:00] wcrypto.INFO: User created {"user_id":"2"} []
[2020-09-10T01:41:21.684275+00:00] wcrypto.INFO: Account created {"account_id":"2"} []
[2020-09-10T01:41:23.749854+00:00] wcrypto.INFO: User created {"user_id":"3"} []
[2020-09-10T01:41:23.802059+00:00] wcrypto.INFO: Account created {"account_id":"3"} []
[2020-09-10T14:05:07.664197+00:00] wcrypto.INFO: Authenticate user {"route":null,"user_id":"1"} []
[2020-09-10T14:12:12.953770+00:00] wcrypto.INFO: Deposit {"source_account":{"DanielAnjos\\WCrypto\\Http\\Entities\\Account":{"id":"1","account_number":"lO8KViXLzjfSSI4dRmkElg==","balance":4000.0,"user":{"id":"1","name":"Yt7sxsEj9Tg/rAeXJpOGYQ==","cpf_cnpj":"B8PF0MchE5pSW/SMTR0bgnf8Ey+OPCuJowtAwsdsGxU=","rg_ie":"SC9CaXmey8/Bk6+LOi5wCg==","birth_date":"1997-04-28","phone":"LtFO3zPBZw7Yh1nVwbWCKQ==","password":null,"address":"wiqA4wpTn+oPUgZmyhUSyA==","address_number":"O/v55bqlIXpjgdcqiAcuUQ==","city":"+9hQh/x9HdUBGGhRxF0iRFOZYbJr++xniQAyiAdjPTg=","country":"M75mPLA+5o6mGPeEUauqxg=="}}},"value":3000} []
[2020-09-10T14:12:26.803883+00:00] wcrypto.INFO: Authenticate user {"route":null,"user_id":"1"} []
[2020-09-10T14:12:27.090870+00:00] wcrypto.INFO: Deposit {"source_account":{"DanielAnjos\\WCrypto\\Http\\Entities\\Account":{"id":"1","account_number":"lO8KViXLzjfSSI4dRmkElg==","balance":7000.0,"user":{"id":"1","name":"Yt7sxsEj9Tg/rAeXJpOGYQ==","cpf_cnpj":"B8PF0MchE5pSW/SMTR0bgnf8Ey+OPCuJowtAwsdsGxU=","rg_ie":"SC9CaXmey8/Bk6+LOi5wCg==","birth_date":"1997-04-28","phone":"LtFO3zPBZw7Yh1nVwbWCKQ==","password":null,"address":"wiqA4wpTn+oPUgZmyhUSyA==","address_number":"O/v55bqlIXpjgdcqiAcuUQ==","city":"+9hQh/x9HdUBGGhRxF0iRFOZYbJr++xniQAyiAdjPTg=","country":"M75mPLA+5o6mGPeEUauqxg=="}}},"value":3000} []
[2020-09-10T14:12:52.817317+00:00] wcrypto.INFO: Authenticate user {"route":null,"user_id":"1"} []
[2020-09-10T14:12:52.986990+00:00] wcrypto.INFO: Deposit {"source_account":{"DanielAnjos\\WCrypto\\Http\\Entities\\Account":{"id":"1","account_number":"lO8KViXLzjfSSI4dRmkElg==","balance":10000.0,"user":{"id":"1","name":"Yt7sxsEj9Tg/rAeXJpOGYQ==","cpf_cnpj":"B8PF0MchE5pSW/SMTR0bgnf8Ey+OPCuJowtAwsdsGxU=","rg_ie":"SC9CaXmey8/Bk6+LOi5wCg==","birth_date":"1997-04-28","phone":"LtFO3zPBZw7Yh1nVwbWCKQ==","password":null,"address":"wiqA4wpTn+oPUgZmyhUSyA==","address_number":"O/v55bqlIXpjgdcqiAcuUQ==","city":"+9hQh/x9HdUBGGhRxF0iRFOZYbJr++xniQAyiAdjPTg=","country":"M75mPLA+5o6mGPeEUauqxg=="}}},"value":3000} []
[2020-09-10T14:13:31.542969+00:00] wcrypto.INFO: Authenticate user {"route":null,"user_id":"1"} []
[2020-09-10T14:13:31.801783+00:00] wcrypto.INFO: Deposit {"source_account":{"DanielAnjos\\WCrypto\\Http\\Entities\\Account":{"id":"1","account_number":"lO8KViXLzjfSSI4dRmkElg==","balance":13000.0,"user":{"id":"1","name":"Yt7sxsEj9Tg/rAeXJpOGYQ==","cpf_cnpj":"B8PF0MchE5pSW/SMTR0bgnf8Ey+OPCuJowtAwsdsGxU=","rg_ie":"SC9CaXmey8/Bk6+LOi5wCg==","birth_date":"1997-04-28","phone":"LtFO3zPBZw7Yh1nVwbWCKQ==","password":null,"address":"wiqA4wpTn+oPUgZmyhUSyA==","address_number":"O/v55bqlIXpjgdcqiAcuUQ==","city":"+9hQh/x9HdUBGGhRxF0iRFOZYbJr++xniQAyiAdjPTg=","country":"M75mPLA+5o6mGPeEUauqxg=="}}},"value":3000} []
[2020-09-10T14:13:52.437007+00:00] wcrypto.INFO: Authenticate user {"route":null,"user_id":"1"} []
[2020-09-10T14:13:52.633057+00:00] wcrypto.INFO: Deposit {"source_account":{"DanielAnjos\\WCrypto\\Http\\Entities\\Account":{"id":"1","account_number":"lO8KViXLzjfSSI4dRmkElg==","balance":16000.0,"user":{"id":"1","name":"Yt7sxsEj9Tg/rAeXJpOGYQ==","cpf_cnpj":"B8PF0MchE5pSW/SMTR0bgnf8Ey+OPCuJowtAwsdsGxU=","rg_ie":"SC9CaXmey8/Bk6+LOi5wCg==","birth_date":"1997-04-28","phone":"LtFO3zPBZw7Yh1nVwbWCKQ==","password":null,"address":"wiqA4wpTn+oPUgZmyhUSyA==","address_number":"O/v55bqlIXpjgdcqiAcuUQ==","city":"+9hQh/x9HdUBGGhRxF0iRFOZYbJr++xniQAyiAdjPTg=","country":"M75mPLA+5o6mGPeEUauqxg=="}}},"value":3000} []
[2020-09-10T14:14:21.322611+00:00] wcrypto.INFO: Authenticate user {"route":null,"user_id":"1"} []
[2020-09-10T14:14:21.658463+00:00] wcrypto.INFO: Deposit {"source_account":{"DanielAnjos\\WCrypto\\Http\\Entities\\Account":{"id":"1","account_number":"lO8KViXLzjfSSI4dRmkElg==","balance":19000.0,"user":{"id":"1","name":"Yt7sxsEj9Tg/rAeXJpOGYQ==","cpf_cnpj":"B8PF0MchE5pSW/SMTR0bgnf8Ey+OPCuJowtAwsdsGxU=","rg_ie":"SC9CaXmey8/Bk6+LOi5wCg==","birth_date":"1997-04-28","phone":"LtFO3zPBZw7Yh1nVwbWCKQ==","password":null,"address":"wiqA4wpTn+oPUgZmyhUSyA==","address_number":"O/v55bqlIXpjgdcqiAcuUQ==","city":"+9hQh/x9HdUBGGhRxF0iRFOZYbJr++xniQAyiAdjPTg=","country":"M75mPLA+5o6mGPeEUauqxg=="}}},"value":3000} []
[2020-09-10T14:14:41.438300+00:00] wcrypto.INFO: Authenticate user {"url":"/api/transactions","user_id":"1"} []
[2020-09-10T14:14:41.580440+00:00] wcrypto.INFO: Deposit {"source_account":{"DanielAnjos\\WCrypto\\Http\\Entities\\Account":{"id":"1","account_number":"lO8KViXLzjfSSI4dRmkElg==","balance":22000.0,"user":{"id":"1","name":"Yt7sxsEj9Tg/rAeXJpOGYQ==","cpf_cnpj":"B8PF0MchE5pSW/SMTR0bgnf8Ey+OPCuJowtAwsdsGxU=","rg_ie":"SC9CaXmey8/Bk6+LOi5wCg==","birth_date":"1997-04-28","phone":"LtFO3zPBZw7Yh1nVwbWCKQ==","password":null,"address":"wiqA4wpTn+oPUgZmyhUSyA==","address_number":"O/v55bqlIXpjgdcqiAcuUQ==","city":"+9hQh/x9HdUBGGhRxF0iRFOZYbJr++xniQAyiAdjPTg=","country":"M75mPLA+5o6mGPeEUauqxg=="}}},"value":3000} []
[2020-09-11T15:17:38.121481-03:00] wcrypto.INFO: teste [] []
[2020-09-14T15:49:50.416816-03:00] wcrypto.INFO: User created {"user_id":"5"} []
[2020-09-14T15:49:50.421278-03:00] wcrypto.INFO: Account created {"account_id":"1"} []
[2020-09-14T15:58:59.488279-03:00] wcrypto.INFO: User created {"user_id":"1"} []
[2020-09-14T15:58:59.492325-03:00] wcrypto.INFO: Account created {"account_id":"1"} []
[2020-09-14T15:59:24.104539-03:00] wcrypto.INFO: User created {"user_id":"2"} []
[2020-09-14T15:59:24.112762-03:00] wcrypto.INFO: Account created {"account_id":"2"} []
[2020-09-14T15:59:53.558825-03:00] wcrypto.INFO: Authenticate user {"url":"/api/teste","user_id":"1"} []
[2020-09-14T16:00:45.903433-03:00] wcrypto.INFO: Authenticate user {"url":"/api/teste","user_id":"1"} []
[2020-09-14T16:20:41.782864-03:00] wcrypto.INFO: Authenticate user {"url":"/api/teste","user_id":"1"} []
[2020-09-15T15:29:51.395567-03:00] wcrypto.INFO: Authenticate user {"url":"/api/teste","user_id":"1"} []
[2020-09-16T17:26:39.415300-03:00] wcrypto.INFO: Authenticate user {"url":"/api/transactions","user_id":"1"} []
[2020-09-16T17:27:00.088149-03:00] wcrypto.INFO: Authenticate user {"url":"/api/transactions","user_id":"1"} []
[2020-09-16T17:27:08.262766-03:00] wcrypto.INFO: Authenticate user {"url":"/api/transactions","user_id":"1"} []
[2020-09-16T17:27:17.755338-03:00] wcrypto.INFO: Authenticate user {"url":"/api/transactions","user_id":"1"} []
[2020-09-16T17:27:29.835820-03:00] wcrypto.INFO: Authenticate user {"url":"/api/transactions","user_id":"1"} []
[2020-09-16T17:27:29.879323-03:00] wcrypto.INFO: Deposit {"source_account":{"DanielAnjos\\WCrypto\\Http\\Entities\\Account":{"id":"1","account_number":"EP+B0nGuxNIvptnkPGWoBw==","balance":1100.0,"user":{"id":"1","name":"Yt7sxsEj9Tg/rAeXJpOGYQ==","cpf_cnpj":"B8PF0MchE5pSW/SMTR0bgnf8Ey+OPCuJowtAwsdsGxU=","rg_ie":"Wi005cpcAAi/iu1++pmAsQ==","birth_date":"1997-04-28","phone":"uWzJxinCD3826PxmswBNcw==","password":null,"address":"hfA+FhyytytJsEJbLZRcq+cSC0NjdxfSU29MWiFKRoo=","address_number":"6M8PJmgzcrq8yyDUpxvVlA==","city":"+9hQh/x9HdUBGGhRxF0iRFOZYbJr++xniQAyiAdjPTg=","country":"NmMCVJwUAxLRvLZYni7mPA=="}}},"value":100} []
[2020-09-16T17:44:53.389079-03:00] wcrypto.INFO: Authenticate user {"url":"/api/transactions","user_id":"1"} []
[2020-09-16T17:44:53.418604-03:00] wcrypto.INFO: Deposit {"source_account":{"DanielAnjos\\WCrypto\\Http\\Entities\\Account":{"id":"1","account_number":"EP+B0nGuxNIvptnkPGWoBw==","balance":"1100.00","user":{"id":"1","name":"Yt7sxsEj9Tg/rAeXJpOGYQ==","cpf_cnpj":"B8PF0MchE5pSW/SMTR0bgnf8Ey+OPCuJowtAwsdsGxU=","rg_ie":"Wi005cpcAAi/iu1++pmAsQ==","birth_date":"1997-04-28","phone":"uWzJxinCD3826PxmswBNcw==","password":null,"address":"hfA+FhyytytJsEJbLZRcq+cSC0NjdxfSU29MWiFKRoo=","address_number":"6M8PJmgzcrq8yyDUpxvVlA==","city":"+9hQh/x9HdUBGGhRxF0iRFOZYbJr++xniQAyiAdjPTg=","country":"NmMCVJwUAxLRvLZYni7mPA=="}}},"value":"123"} []
[2020-09-16T17:48:39.234383-03:00] wcrypto.INFO: Authenticate user {"url":"/api/transactions","user_id":"1"} []
[2020-09-16T17:48:39.252478-03:00] wcrypto.INFO: Deposit {"source_account":{"DanielAnjos\\WCrypto\\Http\\Entities\\Account":{"id":"1","account_number":"EP+B0nGuxNIvptnkPGWoBw==","balance":"1223.00","user":{"id":"1","name":"Yt7sxsEj9Tg/rAeXJpOGYQ==","cpf_cnpj":"B8PF0MchE5pSW/SMTR0bgnf8Ey+OPCuJowtAwsdsGxU=","rg_ie":"Wi005cpcAAi/iu1++pmAsQ==","birth_date":"1997-04-28","phone":"uWzJxinCD3826PxmswBNcw==","password":null,"address":"hfA+FhyytytJsEJbLZRcq+cSC0NjdxfSU29MWiFKRoo=","address_number":"6M8PJmgzcrq8yyDUpxvVlA==","city":"+9hQh/x9HdUBGGhRxF0iRFOZYbJr++xniQAyiAdjPTg=","country":"NmMCVJwUAxLRvLZYni7mPA=="}}},"value":"123"} []
[2020-09-16T17:48:46.590989-03:00] wcrypto.INFO: Authenticate user {"url":"/api/transactions","user_id":"1"} []
[2020-09-16T17:48:46.601770-03:00] wcrypto.INFO: Deposit {"source_account":{"DanielAnjos\\WCrypto\\Http\\Entities\\Account":{"id":"1","account_number":"EP+B0nGuxNIvptnkPGWoBw==","balance":"1346.00","user":{"id":"1","name":"Yt7sxsEj9Tg/rAeXJpOGYQ==","cpf_cnpj":"B8PF0MchE5pSW/SMTR0bgnf8Ey+OPCuJowtAwsdsGxU=","rg_ie":"Wi005cpcAAi/iu1++pmAsQ==","birth_date":"1997-04-28","phone":"uWzJxinCD3826PxmswBNcw==","password":null,"address":"hfA+FhyytytJsEJbLZRcq+cSC0NjdxfSU29MWiFKRoo=","address_number":"6M8PJmgzcrq8yyDUpxvVlA==","city":"+9hQh/x9HdUBGGhRxF0iRFOZYbJr++xniQAyiAdjPTg=","country":"NmMCVJwUAxLRvLZYni7mPA=="}}},"value":"123"} []
[2020-09-16T17:49:24.689434-03:00] wcrypto.INFO: Authenticate user {"url":"/api/transactions","user_id":"1"} []
[2020-09-16T17:49:24.698768-03:00] wcrypto.INFO: Deposit {"source_account":{"DanielAnjos\\WCrypto\\Http\\Entities\\Account":{"id":"1","account_number":"EP+B0nGuxNIvptnkPGWoBw==","balance":"1469.00","user":{"id":"1","name":"Yt7sxsEj9Tg/rAeXJpOGYQ==","cpf_cnpj":"B8PF0MchE5pSW/SMTR0bgnf8Ey+OPCuJowtAwsdsGxU=","rg_ie":"Wi005cpcAAi/iu1++pmAsQ==","birth_date":"1997-04-28","phone":"uWzJxinCD3826PxmswBNcw==","password":null,"address":"hfA+FhyytytJsEJbLZRcq+cSC0NjdxfSU29MWiFKRoo=","address_number":"6M8PJmgzcrq8yyDUpxvVlA==","city":"+9hQh/x9HdUBGGhRxF0iRFOZYbJr++xniQAyiAdjPTg=","country":"NmMCVJwUAxLRvLZYni7mPA=="}}},"value":"100"} []
[2020-09-16T17:55:53.863766-03:00] wcrypto.INFO: Authenticate user {"url":"/api/transactions","user_id":"1"} []
[2020-09-16T17:55:53.883449-03:00] wcrypto.INFO: Deposit {"source_account":{"DanielAnjos\\WCrypto\\Http\\Entities\\Account":{"id":"1","account_number":"EP+B0nGuxNIvptnkPGWoBw==","balance":"1569.00","user":{"id":"1","name":"Yt7sxsEj9Tg/rAeXJpOGYQ==","cpf_cnpj":"B8PF0MchE5pSW/SMTR0bgnf8Ey+OPCuJowtAwsdsGxU=","rg_ie":"Wi005cpcAAi/iu1++pmAsQ==","birth_date":"1997-04-28","phone":"uWzJxinCD3826PxmswBNcw==","password":null,"address":"hfA+FhyytytJsEJbLZRcq+cSC0NjdxfSU29MWiFKRoo=","address_number":"6M8PJmgzcrq8yyDUpxvVlA==","city":"+9hQh/x9HdUBGGhRxF0iRFOZYbJr++xniQAyiAdjPTg=","country":"NmMCVJwUAxLRvLZYni7mPA=="}}},"value":"5"} []
[2020-09-16T17:56:09.039432-03:00] wcrypto.INFO: Authenticate user {"url":"/api/transactions","user_id":"1"} []
[2020-09-16T17:56:09.050802-03:00] wcrypto.INFO: Withdrawal {"source_account":{"DanielAnjos\\WCrypto\\Http\\Entities\\Account":{"id":"1","account_number":"EP+B0nGuxNIvptnkPGWoBw==","balance":74.0,"user":{"id":"1","name":"Yt7sxsEj9Tg/rAeXJpOGYQ==","cpf_cnpj":"B8PF0MchE5pSW/SMTR0bgnf8Ey+OPCuJowtAwsdsGxU=","rg_ie":"Wi005cpcAAi/iu1++pmAsQ==","birth_date":"1997-04-28","phone":"uWzJxinCD3826PxmswBNcw==","password":null,"address":"hfA+FhyytytJsEJbLZRcq+cSC0NjdxfSU29MWiFKRoo=","address_number":"6M8PJmgzcrq8yyDUpxvVlA==","city":"+9hQh/x9HdUBGGhRxF0iRFOZYbJr++xniQAyiAdjPTg=","country":"NmMCVJwUAxLRvLZYni7mPA=="}}},"value":"1500"} []
[2020-09-16T17:56:15.764373-03:00] wcrypto.INFO: Authenticate user {"url":"/api/transactions","user_id":"1"} []
[2020-09-16T17:56:56.725608-03:00] wcrypto.INFO: Authenticate user {"url":"/api/transactions","user_id":"1"} []
[2020-09-16T17:57:19.330431-03:00] wcrypto.INFO: Authenticate user {"url":"/api/transactions","user_id":"1"} []
[2020-09-16T17:57:33.102982-03:00] wcrypto.INFO: Authenticate user {"url":"/api/transactions","user_id":"1"} []
[2020-09-16T17:57:54.687510-03:00] wcrypto.INFO: Authenticate user {"url":"/api/transactions","user_id":"1"} []
[2020-09-16T17:59:48.682104-03:00] wcrypto.INFO: Authenticate user {"url":"/api/transactions","user_id":"1"} []
[2020-09-16T17:59:53.317634-03:00] wcrypto.INFO: Authenticate user {"url":"/api/transactions","user_id":"1"} []
[2020-09-16T18:00:45.002713-03:00] wcrypto.INFO: Authenticate user {"url":"/api/transactions","user_id":"1"} []
[2020-09-16T18:01:06.560348-03:00] wcrypto.INFO: Authenticate user {"url":"/api/transactions","user_id":"1"} []
[2020-09-16T18:01:36.494585-03:00] wcrypto.INFO: Authenticate user {"url":"/api/transactions","user_id":"1"} []
[2020-09-16T18:01:39.792708-03:00] wcrypto.INFO: Authenticate user {"url":"/api/transactions","user_id":"1"} []
[2020-09-16T18:01:40.582088-03:00] wcrypto.INFO: Authenticate user {"url":"/api/transactions","user_id":"1"} []
[2020-09-16T18:01:40.768346-03:00] wcrypto.INFO: Authenticate user {"url":"/api/transactions","user_id":"1"} []
[2020-09-16T18:01:40.970669-03:00] wcrypto.INFO: Authenticate user {"url":"/api/transactions","user_id":"1"} []
[2020-09-16T18:01:41.151113-03:00] wcrypto.INFO: Authenticate user {"url":"/api/transactions","user_id":"1"} []
[2020-09-16T18:01:53.610648-03:00] wcrypto.INFO: Authenticate user {"url":"/api/transactions","user_id":"1"} []
[2020-09-16T18:01:59.580055-03:00] wcrypto.INFO: Authenticate user {"url":"/api/transactions","user_id":"1"} []
[2020-09-16T18:04:55.086753-03:00] wcrypto.INFO: Authenticate user {"url":"/api/transactions","user_id":"1"} []
[2020-09-16T18:04:57.165761-03:00] wcrypto.INFO: Authenticate user {"url":"/api/transactions","user_id":"1"} []
[2020-09-16T18:05:02.608320-03:00] wcrypto.INFO: Authenticate user {"url":"/api/transactions","user_id":"1"} []
[2020-09-16T18:10:41.462338-03:00] wcrypto.INFO: Authenticate user {"url":"/api/transactions","user_id":"1"} []
[2020-09-16T18:10:41.517354-03:00] wcrypto.INFO: Deposit {"source_account":{"DanielAnjos\\WCrypto\\Http\\Entities\\Account":{"id":"1","account_number":"EP+B0nGuxNIvptnkPGWoBw==","balance":174.0,"user":{"id":"1","name":"Yt7sxsEj9Tg/rAeXJpOGYQ==","cpf_cnpj":"B8PF0MchE5pSW/SMTR0bgnf8Ey+OPCuJowtAwsdsGxU=","rg_ie":"Wi005cpcAAi/iu1++pmAsQ==","birth_date":"1997-04-28","phone":"uWzJxinCD3826PxmswBNcw==","password":null,"address":"hfA+FhyytytJsEJbLZRcq+cSC0NjdxfSU29MWiFKRoo=","address_number":"6M8PJmgzcrq8yyDUpxvVlA==","city":"+9hQh/x9HdUBGGhRxF0iRFOZYbJr++xniQAyiAdjPTg=","country":"NmMCVJwUAxLRvLZYni7mPA=="}}},"value":"100"} []
[2020-09-16T18:11:08.595810-03:00] wcrypto.INFO: Authenticate user {"url":"/api/transactions","user_id":"1"} []
[2020-09-16T18:11:08.612688-03:00] wcrypto.INFO: Deposit {"source_account":{"DanielAnjos\\WCrypto\\Http\\Entities\\Account":{"id":"1","account_number":"EP+B0nGuxNIvptnkPGWoBw==","balance":274.0,"user":{"id":"1","name":"Yt7sxsEj9Tg/rAeXJpOGYQ==","cpf_cnpj":"B8PF0MchE5pSW/SMTR0bgnf8Ey+OPCuJowtAwsdsGxU=","rg_ie":"Wi005cpcAAi/iu1++pmAsQ==","birth_date":"1997-04-28","phone":"uWzJxinCD3826PxmswBNcw==","password":null,"address":"hfA+FhyytytJsEJbLZRcq+cSC0NjdxfSU29MWiFKRoo=","address_number":"6M8PJmgzcrq8yyDUpxvVlA==","city":"+9hQh/x9HdUBGGhRxF0iRFOZYbJr++xniQAyiAdjPTg=","country":"NmMCVJwUAxLRvLZYni7mPA=="}}},"value":"100"} []
[2020-09-16T18:12:09.098738-03:00] wcrypto.INFO: Authenticate user {"url":"/api/transactions","user_id":"1"} []
[2020-09-16T18:12:09.122339-03:00] wcrypto.INFO: Deposit {"source_account":{"DanielAnjos\\WCrypto\\Http\\Entities\\Account":{"id":"1","account_number":"EP+B0nGuxNIvptnkPGWoBw==","balance":374.0,"user":{"id":"1","name":"Yt7sxsEj9Tg/rAeXJpOGYQ==","cpf_cnpj":"B8PF0MchE5pSW/SMTR0bgnf8Ey+OPCuJowtAwsdsGxU=","rg_ie":"Wi005cpcAAi/iu1++pmAsQ==","birth_date":"1997-04-28","phone":"uWzJxinCD3826PxmswBNcw==","password":null,"address":"hfA+FhyytytJsEJbLZRcq+cSC0NjdxfSU29MWiFKRoo=","address_number":"6M8PJmgzcrq8yyDUpxvVlA==","city":"+9hQh/x9HdUBGGhRxF0iRFOZYbJr++xniQAyiAdjPTg=","country":"NmMCVJwUAxLRvLZYni7mPA=="}}},"value":"100"} []
[2020-09-16T18:12:15.212040-03:00] wcrypto.INFO: Authenticate user {"url":"/api/transactions","user_id":"1"} []
[2020-09-16T18:12:15.257470-03:00] wcrypto.INFO: Deposit {"source_account":{"DanielAnjos\\WCrypto\\Http\\Entities\\Account":{"id":"1","account_number":"EP+B0nGuxNIvptnkPGWoBw==","balance":474.0,"user":{"id":"1","name":"Yt7sxsEj9Tg/rAeXJpOGYQ==","cpf_cnpj":"B8PF0MchE5pSW/SMTR0bgnf8Ey+OPCuJowtAwsdsGxU=","rg_ie":"Wi005cpcAAi/iu1++pmAsQ==","birth_date":"1997-04-28","phone":"uWzJxinCD3826PxmswBNcw==","password":null,"address":"hfA+FhyytytJsEJbLZRcq+cSC0NjdxfSU29MWiFKRoo=","address_number":"6M8PJmgzcrq8yyDUpxvVlA==","city":"+9hQh/x9HdUBGGhRxF0iRFOZYbJr++xniQAyiAdjPTg=","country":"NmMCVJwUAxLRvLZYni7mPA=="}}},"value":"100"} []
[2020-09-16T18:12:16.537018-03:00] wcrypto.INFO: Authenticate user {"url":"/api/transactions","user_id":"1"} []
[2020-09-16T18:12:16.556825-03:00] wcrypto.INFO: Deposit {"source_account":{"DanielAnjos\\WCrypto\\Http\\Entities\\Account":{"id":"1","account_number":"EP+B0nGuxNIvptnkPGWoBw==","balance":574.0,"user":{"id":"1","name":"Yt7sxsEj9Tg/rAeXJpOGYQ==","cpf_cnpj":"B8PF0MchE5pSW/SMTR0bgnf8Ey+OPCuJowtAwsdsGxU=","rg_ie":"Wi005cpcAAi/iu1++pmAsQ==","birth_date":"1997-04-28","phone":"uWzJxinCD3826PxmswBNcw==","password":null,"address":"hfA+FhyytytJsEJbLZRcq+cSC0NjdxfSU29MWiFKRoo=","address_number":"6M8PJmgzcrq8yyDUpxvVlA==","city":"+9hQh/x9HdUBGGhRxF0iRFOZYbJr++xniQAyiAdjPTg=","country":"NmMCVJwUAxLRvLZYni7mPA=="}}},"value":"100"} []
[2020-09-16T18:12:17.662236-03:00] wcrypto.INFO: Authenticate user {"url":"/api/transactions","user_id":"1"} []
[2020-09-16T18:12:17.685691-03:00] wcrypto.INFO: Deposit {"source_account":{"DanielAnjos\\WCrypto\\Http\\Entities\\Account":{"id":"1","account_number":"EP+B0nGuxNIvptnkPGWoBw==","balance":674.0,"user":{"id":"1","name":"Yt7sxsEj9Tg/rAeXJpOGYQ==","cpf_cnpj":"B8PF0MchE5pSW/SMTR0bgnf8Ey+OPCuJowtAwsdsGxU=","rg_ie":"Wi005cpcAAi/iu1++pmAsQ==","birth_date":"1997-04-28","phone":"uWzJxinCD3826PxmswBNcw==","password":null,"address":"hfA+FhyytytJsEJbLZRcq+cSC0NjdxfSU29MWiFKRoo=","address_number":"6M8PJmgzcrq8yyDUpxvVlA==","city":"+9hQh/x9HdUBGGhRxF0iRFOZYbJr++xniQAyiAdjPTg=","country":"NmMCVJwUAxLRvLZYni7mPA=="}}},"value":"100"} []
[2020-09-16T18:12:39.959589-03:00] wcrypto.INFO: Authenticate user {"url":"/api/transactions","user_id":"1"} []
[2020-09-16T18:12:39.986844-03:00] wcrypto.INFO: Deposit {"source_account":{"DanielAnjos\\WCrypto\\Http\\Entities\\Account":{"id":"1","account_number":"EP+B0nGuxNIvptnkPGWoBw==","balance":774.0,"user":{"id":"1","name":"Yt7sxsEj9Tg/rAeXJpOGYQ==","cpf_cnpj":"B8PF0MchE5pSW/SMTR0bgnf8Ey+OPCuJowtAwsdsGxU=","rg_ie":"Wi005cpcAAi/iu1++pmAsQ==","birth_date":"1997-04-28","phone":"uWzJxinCD3826PxmswBNcw==","password":null,"address":"hfA+FhyytytJsEJbLZRcq+cSC0NjdxfSU29MWiFKRoo=","address_number":"6M8PJmgzcrq8yyDUpxvVlA==","city":"+9hQh/x9HdUBGGhRxF0iRFOZYbJr++xniQAyiAdjPTg=","country":"NmMCVJwUAxLRvLZYni7mPA=="}}},"value":"100"} []
[2020-09-16T18:13:08.827598-03:00] wcrypto.INFO: Authenticate user {"url":"/api/transactions","user_id":"1"} []
[2020-09-16T18:13:08.852088-03:00] wcrypto.INFO: Deposit {"source_account":{"DanielAnjos\\WCrypto\\Http\\Entities\\Account":{"id":"1","account_number":"EP+B0nGuxNIvptnkPGWoBw==","balance":1274.0,"user":{"id":"1","name":"Yt7sxsEj9Tg/rAeXJpOGYQ==","cpf_cnpj":"B8PF0MchE5pSW/SMTR0bgnf8Ey+OPCuJowtAwsdsGxU=","rg_ie":"Wi005cpcAAi/iu1++pmAsQ==","birth_date":"1997-04-28","phone":"uWzJxinCD3826PxmswBNcw==","password":null,"address":"hfA+FhyytytJsEJbLZRcq+cSC0NjdxfSU29MWiFKRoo=","address_number":"6M8PJmgzcrq8yyDUpxvVlA==","city":"+9hQh/x9HdUBGGhRxF0iRFOZYbJr++xniQAyiAdjPTg=","country":"NmMCVJwUAxLRvLZYni7mPA=="}}},"value":"500"} []
[2020-09-16T18:13:12.902841-03:00] wcrypto.INFO: Authenticate user {"url":"/api/transactions","user_id":"1"} []
[2020-09-16T18:13:12.918551-03:00] wcrypto.INFO: Withdrawal {"source_account":{"DanielAnjos\\WCrypto\\Http\\Entities\\Account":{"id":"1","account_number":"EP+B0nGuxNIvptnkPGWoBw==","balance":274.0,"user":{"id":"1","name":"Yt7sxsEj9Tg/rAeXJpOGYQ==","cpf_cnpj":"B8PF0MchE5pSW/SMTR0bgnf8Ey+OPCuJowtAwsdsGxU=","rg_ie":"Wi005cpcAAi/iu1++pmAsQ==","birth_date":"1997-04-28","phone":"uWzJxinCD3826PxmswBNcw==","password":null,"address":"hfA+FhyytytJsEJbLZRcq+cSC0NjdxfSU29MWiFKRoo=","address_number":"6M8PJmgzcrq8yyDUpxvVlA==","city":"+9hQh/x9HdUBGGhRxF0iRFOZYbJr++xniQAyiAdjPTg=","country":"NmMCVJwUAxLRvLZYni7mPA=="}}},"value":"1000"} []
[2020-09-16T18:13:16.595463-03:00] wcrypto.INFO: Authenticate user {"url":"/api/transactions","user_id":"1"} []
[2020-09-16T18:13:18.300691-03:00] wcrypto.INFO: Authenticate user {"url":"/api/transactions","user_id":"1"} []
[2020-09-16T18:13:19.565867-03:00] wcrypto.INFO: Authenticate user {"url":"/api/transactions","user_id":"1"} []
[2020-09-16T18:13:20.477047-03:00] wcrypto.INFO: Authenticate user {"url":"/api/transactions","user_id":"1"} []
[2020-09-16T18:13:21.100070-03:00] wcrypto.INFO: Authenticate user {"url":"/api/transactions","user_id":"1"} []
[2020-09-16T18:13:21.504689-03:00] wcrypto.INFO: Authenticate user {"url":"/api/transactions","user_id":"1"} []
[2020-09-16T18:13:21.854498-03:00] wcrypto.INFO: Authenticate user {"url":"/api/transactions","user_id":"1"} []
[2020-09-16T18:13:22.227999-03:00] wcrypto.INFO: Authenticate user {"url":"/api/transactions","user_id":"1"} []
[2020-09-16T18:13:22.523484-03:00] wcrypto.INFO: Authenticate user {"url":"/api/transactions","user_id":"1"} []
[2020-09-16T18:13:22.852151-03:00] wcrypto.INFO: Authenticate user {"url":"/api/transactions","user_id":"1"} []
[2020-09-16T18:13:23.216120-03:00] wcrypto.INFO: Authenticate user {"url":"/api/transactions","user_id":"1"} []
[2020-09-16T18:13:23.487718-03:00] wcrypto.INFO: Authenticate user {"url":"/api/transactions","user_id":"1"} []
[2020-09-16T18:13:23.841927-03:00] wcrypto.INFO: Authenticate user {"url":"/api/transactions","user_id":"1"} []
[2020-09-16T18:13:28.925941-03:00] wcrypto.INFO: Authenticate user {"url":"/api/transactions","user_id":"1"} []
[2020-09-16T18:13:28.950659-03:00] wcrypto.INFO: Withdrawal {"source_account":{"DanielAnjos\\WCrypto\\Http\\Entities\\Account":{"id":"1","account_number":"EP+B0nGuxNIvptnkPGWoBw==","balance":0.0,"user":{"id":"1","name":"Yt7sxsEj9Tg/rAeXJpOGYQ==","cpf_cnpj":"B8PF0MchE5pSW/SMTR0bgnf8Ey+OPCuJowtAwsdsGxU=","rg_ie":"Wi005cpcAAi/iu1++pmAsQ==","birth_date":"1997-04-28","phone":"uWzJxinCD3826PxmswBNcw==","password":null,"address":"hfA+FhyytytJsEJbLZRcq+cSC0NjdxfSU29MWiFKRoo=","address_number":"6M8PJmgzcrq8yyDUpxvVlA==","city":"+9hQh/x9HdUBGGhRxF0iRFOZYbJr++xniQAyiAdjPTg=","country":"NmMCVJwUAxLRvLZYni7mPA=="}}},"value":"274"} []
[2020-09-16T18:13:42.009128-03:00] wcrypto.INFO: Authenticate user {"url":"/api/transactions","user_id":"1"} []
[2020-09-16T18:13:42.024533-03:00] wcrypto.INFO: Deposit {"source_account":{"DanielAnjos\\WCrypto\\Http\\Entities\\Account":{"id":"1","account_number":"EP+B0nGuxNIvptnkPGWoBw==","balance":500.0,"user":{"id":"1","name":"Yt7sxsEj9Tg/rAeXJpOGYQ==","cpf_cnpj":"B8PF0MchE5pSW/SMTR0bgnf8Ey+OPCuJowtAwsdsGxU=","rg_ie":"Wi005cpcAAi/iu1++pmAsQ==","birth_date":"1997-04-28","phone":"uWzJxinCD3826PxmswBNcw==","password":null,"address":"hfA+FhyytytJsEJbLZRcq+cSC0NjdxfSU29MWiFKRoo=","address_number":"6M8PJmgzcrq8yyDUpxvVlA==","city":"+9hQh/x9HdUBGGhRxF0iRFOZYbJr++xniQAyiAdjPTg=","country":"NmMCVJwUAxLRvLZYni7mPA=="}}},"value":"500"} []
[2020-09-16T18:13:46.187446-03:00] wcrypto.INFO: Authenticate user {"url":"/api/transactions","user_id":"1"} []
[2020-09-16T18:13:46.207879-03:00] wcrypto.INFO: Deposit {"source_account":{"DanielAnjos\\WCrypto\\Http\\Entities\\Account":{"id":"1","account_number":"EP+B0nGuxNIvptnkPGWoBw==","balance":1000.0,"user":{"id":"1","name":"Yt7sxsEj9Tg/rAeXJpOGYQ==","cpf_cnpj":"B8PF0MchE5pSW/SMTR0bgnf8Ey+OPCuJowtAwsdsGxU=","rg_ie":"Wi005cpcAAi/iu1++pmAsQ==","birth_date":"1997-04-28","phone":"uWzJxinCD3826PxmswBNcw==","password":null,"address":"hfA+FhyytytJsEJbLZRcq+cSC0NjdxfSU29MWiFKRoo=","address_number":"6M8PJmgzcrq8yyDUpxvVlA==","city":"+9hQh/x9HdUBGGhRxF0iRFOZYbJr++xniQAyiAdjPTg=","country":"NmMCVJwUAxLRvLZYni7mPA=="}}},"value":"500"} []
[2020-09-16T18:13:55.104449-03:00] wcrypto.INFO: Authenticate user {"url":"/api/transactions","user_id":"1"} []
[2020-09-16T18:13:55.127769-03:00] wcrypto.INFO: Transfer {"source_account":{"DanielAnjos\\WCrypto\\Http\\Entities\\Account":{"id":"1","account_number":"EP+B0nGuxNIvptnkPGWoBw==","balance":500.0,"user":{"id":"1","name":"Yt7sxsEj9Tg/rAeXJpOGYQ==","cpf_cnpj":"B8PF0MchE5pSW/SMTR0bgnf8Ey+OPCuJowtAwsdsGxU=","rg_ie":"Wi005cpcAAi/iu1++pmAsQ==","birth_date":"1997-04-28","phone":"uWzJxinCD3826PxmswBNcw==","password":null,"address":"hfA+FhyytytJsEJbLZRcq+cSC0NjdxfSU29MWiFKRoo=","address_number":"6M8PJmgzcrq8yyDUpxvVlA==","city":"+9hQh/x9HdUBGGhRxF0iRFOZYbJr++xniQAyiAdjPTg=","country":"NmMCVJwUAxLRvLZYni7mPA=="}}},"value":"500"} []
[2020-09-16T18:46:17.834904-03:00] wcrypto.INFO: User created {"user_id":"3"} []
[2020-09-16T18:46:17.841945-03:00] wcrypto.INFO: Account created {"account_id":"3"} []
[2020-09-16T18:50:24.036494-03:00] wcrypto.INFO: User created {"user_id":"4"} []
[2020-09-16T18:50:24.048918-03:00] wcrypto.INFO: Account created {"account_id":"4"} []
[2020-09-16T18:56:56.076237-03:00] wcrypto.INFO: Authenticate user {"url":"/api/transactions","user_id":"4"} []
[2020-09-16T18:56:56.095531-03:00] wcrypto.INFO: Deposit {"source_account":{"DanielAnjos\\WCrypto\\Http\\Entities\\Account":{"id":"4","account_number":"mWMIYrugscNT0k46B0SS1Q==","balance":2500.0,"user":{"id":"4","name":"D2Gf9FQFgpj2RlQ5MihpMcLkj1P/j1FzboKyIeyls2FmSpbVjW09AmA6R8twJBQz","cpf_cnpj":"yRZtdNi62JkOwSsfpeMS1g==","rg_ie":"yRZtdNi62JkOwSsfpeMS1g==","birth_date":"2020-12-31","phone":"uWzJxinCD3826PxmswBNcw==","password":null,"address":"QeYpnrUklORv3jSdhu4Pw5km6t+KMXRk1sf4+YtbfRY=","address_number":"x8PBVtxHYBd7zpsfGVw/hw==","city":"a9tcd2G2I8A/1k+rpNczNg==","country":"NmMCVJwUAxLRvLZYni7mPA=="}}},"value":"1500"} []
[2020-09-16T18:57:10.946636-03:00] wcrypto.INFO: Authenticate user {"url":"/api/transactions","user_id":"4"} []
[2020-09-16T18:57:10.957489-03:00] wcrypto.INFO: Transfer {"source_account":{"DanielAnjos\\WCrypto\\Http\\Entities\\Account":{"id":"4","account_number":"mWMIYrugscNT0k46B0SS1Q==","balance":500.0,"user":{"id":"4","name":"D2Gf9FQFgpj2RlQ5MihpMcLkj1P/j1FzboKyIeyls2FmSpbVjW09AmA6R8twJBQz","cpf_cnpj":"yRZtdNi62JkOwSsfpeMS1g==","rg_ie":"yRZtdNi62JkOwSsfpeMS1g==","birth_date":"2020-12-31","phone":"uWzJxinCD3826PxmswBNcw==","password":null,"address":"QeYpnrUklORv3jSdhu4Pw5km6t+KMXRk1sf4+YtbfRY=","address_number":"x8PBVtxHYBd7zpsfGVw/hw==","city":"a9tcd2G2I8A/1k+rpNczNg==","country":"NmMCVJwUAxLRvLZYni7mPA=="}}},"value":"2000"} []
[2020-09-16T18:57:24.966278-03:00] wcrypto.INFO: Authenticate user {"url":"/api/transactions","user_id":"4"} []
[2020-09-16T18:57:24.985449-03:00] wcrypto.INFO: Transfer {"source_account":{"DanielAnjos\\WCrypto\\Http\\Entities\\Account":{"id":"4","account_number":"mWMIYrugscNT0k46B0SS1Q==","balance":0.0,"user":{"id":"4","name":"D2Gf9FQFgpj2RlQ5MihpMcLkj1P/j1FzboKyIeyls2FmSpbVjW09AmA6R8twJBQz","cpf_cnpj":"yRZtdNi62JkOwSsfpeMS1g==","rg_ie":"yRZtdNi62JkOwSsfpeMS1g==","birth_date":"2020-12-31","phone":"uWzJxinCD3826PxmswBNcw==","password":null,"address":"QeYpnrUklORv3jSdhu4Pw5km6t+KMXRk1sf4+YtbfRY=","address_number":"x8PBVtxHYBd7zpsfGVw/hw==","city":"a9tcd2G2I8A/1k+rpNczNg==","country":"NmMCVJwUAxLRvLZYni7mPA=="}}},"value":"500"} []
[2020-09-16T18:57:31.726565-03:00] wcrypto.INFO: Authenticate user {"url":"/api/transactions","user_id":"4"} []
[2020-09-16T18:57:31.740022-03:00] wcrypto.INFO: Deposit {"source_account":{"DanielAnjos\\WCrypto\\Http\\Entities\\Account":{"id":"4","account_number":"mWMIYrugscNT0k46B0SS1Q==","balance":5000.0,"user":{"id":"4","name":"D2Gf9FQFgpj2RlQ5MihpMcLkj1P/j1FzboKyIeyls2FmSpbVjW09AmA6R8twJBQz","cpf_cnpj":"yRZtdNi62JkOwSsfpeMS1g==","rg_ie":"yRZtdNi62JkOwSsfpeMS1g==","birth_date":"2020-12-31","phone":"uWzJxinCD3826PxmswBNcw==","password":null,"address":"QeYpnrUklORv3jSdhu4Pw5km6t+KMXRk1sf4+YtbfRY=","address_number":"x8PBVtxHYBd7zpsfGVw/hw==","city":"a9tcd2G2I8A/1k+rpNczNg==","country":"NmMCVJwUAxLRvLZYni7mPA=="}}},"value":"5000"} []
[2020-09-16T18:57:43.982712-03:00] wcrypto.INFO: Authenticate user {"url":"/api/transactions","user_id":"4"} []
[2020-09-16T18:57:47.765418-03:00] wcrypto.INFO: Authenticate user {"url":"/api/transactions","user_id":"4"} []
[2020-09-16T18:57:55.933184-03:00] wcrypto.INFO: Authenticate user {"url":"/api/transactions","user_id":"4"} []
[2020-09-16T18:57:55.954430-03:00] wcrypto.INFO: Transfer {"source_account":{"DanielAnjos\\WCrypto\\Http\\Entities\\Account":{"id":"4","account_number":"mWMIYrugscNT0k46B0SS1Q==","balance":4544.0,"user":{"id":"4","name":"D2Gf9FQFgpj2RlQ5MihpMcLkj1P/j1FzboKyIeyls2FmSpbVjW09AmA6R8twJBQz","cpf_cnpj":"yRZtdNi62JkOwSsfpeMS1g==","rg_ie":"yRZtdNi62JkOwSsfpeMS1g==","birth_date":"2020-12-31","phone":"uWzJxinCD3826PxmswBNcw==","password":null,"address":"QeYpnrUklORv3jSdhu4Pw5km6t+KMXRk1sf4+YtbfRY=","address_number":"x8PBVtxHYBd7zpsfGVw/hw==","city":"a9tcd2G2I8A/1k+rpNczNg==","country":"NmMCVJwUAxLRvLZYni7mPA=="}}},"value":"456"} []
